"V1","V2"
"lambda_H","0.3104374"
"lambda_C","1.2"
"lambda_S","0.0289961"
"lambda_total_H","1.5104374"
"lambda_total_S","1.2289961"
"H_tips","35"
"S_tips","55"
"mu_H","0"
"mu_S","0"
"time","2.2"
