_p0,_h14,Duplication,1.0,1.0
_p1,_h14,Duplication,1.0,1.0
_p3,_h14,Duplication,1.0,0.6
_p32,_h14,Loss,0.6,0.6
_p32,euprymna_scolopes,Duplication,1.0,1.0
_p33,euprymna_scolopes,Duplication,1.0,1.0
_p34,euprymna_scolopes,Duplication,1.0,1.0
_p35,euprymna_scolopes,Duplication,1.0,1.0
MB11B1,euprymna_scolopes,Contemporaneous,1.0,6.871947673600003e-26
MB13B3,euprymna_scolopes,Contemporaneous,1.0,6.871947673600003e-26
ES213,euprymna_scolopes,Contemporaneous,1.0,6.871947673600003e-26
KB2B1,euprymna_scolopes,Contemporaneous,1.0,6.871947673600003e-26
MB13B2,euprymna_scolopes,Contemporaneous,1.0,6.871947673600003e-26
_p4,_h14,Cospeciation,0.6,0.4
_p5,euprymna_morsei,Transfer,0.8,0.4
_p6,euprymna_scolopes,Duplication,0.6,0.6
_p7,euprymna_scolopes,Transfer,0.6,0.6
ems111,euprymna_morsei,Contemporaneous,1.0,6.871947673600003e-26
VLS2,euprymna_scolopes,Contemporaneous,1.0,6.871947673600003e-26
ES114,euprymna_scolopes,Contemporaneous,1.0,6.871947673600003e-26
_p8,euprymna_morsei,Duplication,1.0,1.0
_p26,euprymna_morsei,Duplication,1.0,1.0
_p27,euprymna_morsei,Duplication,1.0,1.0
ems11,euprymna_morsei,Contemporaneous,1.0,6.871947673600003e-26
_p28,euprymna_morsei,Duplication,1.0,1.0
ems32,euprymna_morsei,Contemporaneous,1.0,6.871947673600003e-26
ems31,euprymna_morsei,Contemporaneous,1.0,6.871947673600003e-26
ems91,euprymna_morsei,Contemporaneous,1.0,6.871947673600003e-26
_p9,euprymna_morsei,Duplication,1.0,1.0
_p13,euprymna_morsei,Duplication,1.0,1.0
_p14,euprymna_morsei,Duplication,1.0,1.0
_p17,euprymna_morsei,Duplication,1.0,1.0
_p21,euprymna_morsei,Duplication,1.0,1.0
_p23,euprymna_morsei,Duplication,1.0,1.0
_p24,euprymna_morsei,Duplication,1.0,1.0
_p25,euprymna_morsei,Duplication,1.0,1.0
ems22,euprymna_morsei,Contemporaneous,1.0,6.871947673600003e-26
ems21,euprymna_morsei,Contemporaneous,1.0,6.871947673600003e-26
ems12,euprymna_morsei,Contemporaneous,1.0,6.871947673600003e-26
ems52,euprymna_morsei,Contemporaneous,1.0,6.871947673600003e-26
_p22,euprymna_morsei,Duplication,1.0,1.0
ems51o,euprymna_morsei,Contemporaneous,1.0,6.871947673600003e-26
ems51t,euprymna_morsei,Contemporaneous,1.0,6.871947673600003e-26
_p18,euprymna_morsei,Duplication,1.0,1.0
_p19,euprymna_morsei,Transfer,1.0,1.0
SR5,sepiola_robusta,Contemporaneous,1.0,6.871947673600003e-26
_p20,euprymna_morsei,Duplication,1.0,1.0
ems61,euprymna_morsei,Contemporaneous,1.0,6.871947673600003e-26
ems62,euprymna_morsei,Contemporaneous,1.0,6.871947673600003e-26
ems87,euprymna_morsei,Contemporaneous,1.0,6.871947673600003e-26
_p15,euprymna_morsei,Duplication,1.0,1.0
_p16,euprymna_morsei,Duplication,1.0,1.0
ems42,euprymna_morsei,Contemporaneous,1.0,6.871947673600003e-26
ems72,euprymna_morsei,Contemporaneous,1.0,6.871947673600003e-26
ems41,euprymna_morsei,Contemporaneous,1.0,6.871947673600003e-26
ems112,euprymna_morsei,Contemporaneous,1.0,6.871947673600003e-26
_p10,euprymna_morsei,Duplication,1.0,1.0
_p11,euprymna_morsei,Duplication,1.0,1.0
ems101,euprymna_morsei,Contemporaneous,1.0,6.871947673600003e-26
_p12,euprymna_morsei,Duplication,1.0,1.0
ems82,euprymna_morsei,Contemporaneous,1.0,6.871947673600003e-26
ems103,euprymna_morsei,Contemporaneous,1.0,6.871947673600003e-26
ems92,euprymna_morsei,Contemporaneous,1.0,6.871947673600003e-26
_p29,euprymna_scolopes,Duplication,1.0,1.0
_p31,euprymna_scolopes,Duplication,1.0,1.0
MB15A4,euprymna_scolopes,Contemporaneous,1.0,6.871947673600003e-26
MB13B1,euprymna_scolopes,Contemporaneous,1.0,6.871947673600003e-26
_p30,euprymna_scolopes,Duplication,1.0,1.0
KB1A98,euprymna_scolopes,Contemporaneous,1.0,6.871947673600003e-26
MB15A5,euprymna_scolopes,Contemporaneous,1.0,6.871947673600003e-26
_p2,_h14,Cospeciation,1.0,1.0
ems71,euprymna_morsei,Contemporaneous,1.0,6.871947673600003e-26
KB4B5,euprymna_scolopes,Contemporaneous,1.0,6.871947673600003e-26
MB14A3,_h14,Loss,1.0,1.0
MB14A3,euprymna_scolopes,Contemporaneous,1.0,6.871947673600003e-26
