"V1","V2"
"lambda_H","0.054374"
"lambda_C","0.600046"
"lambda_S","0.4519961"
"lambda_total_H","0.65442"
"lambda_total_S","1.0520421"
"H_tips","27.4077872867394"
"S_tips","134.466564970633"
"mu_H","0"
"mu_S","0"
"time","4"
